HW1 and R basic
…
## 
## Attaching package: 'dplyr'

## The following objects are masked from 'package:stats':
## 
##     filter, lag

## The following objects are masked from 'package:base':
## 
##     intersect, setdiff, setequal, union

library(dplyr)
gapminder

## # A tibble: 1,704 x 6
##    country     continent  year lifeExp      pop gdpPercap
##    <fct>       <fct>     <int>   <dbl>    <int>     <dbl>
##  1 Afghanistan Asia       1952    28.8  8425333      779.
##  2 Afghanistan Asia       1957    30.3  9240934      821.
##  3 Afghanistan Asia       1962    32.0 10267083      853.
##  4 Afghanistan Asia       1967    34.0 11537966      836.
##  5 Afghanistan Asia       1972    36.1 13079460      740.
##  6 Afghanistan Asia       1977    38.4 14880372      786.
##  7 Afghanistan Asia       1982    39.9 12881816      978.
##  8 Afghanistan Asia       1987    40.8 13867957      852.
##  9 Afghanistan Asia       1992    41.7 16317921      649.
## 10 Afghanistan Asia       1997    41.8 22227415      635.
## # ... with 1,694 more rows
…
這樣就可以篩選出2002年中國的資料了

The arrange verb

arrange是以欄位過濾的，而且過濾方式是升冪排列

如果要他降冪排列可以這樣:arrange(desc())

filter跟arrange是可以憶起連用喔!

gapminder %>%
  filter(year==1957) %>%
  arrange(desc(pop))

## # A tibble: 142 x 6
##    country        continent  year lifeExp       pop gdpPercap
##    <fct>          <fct>     <int>   <dbl>     <int>     <dbl>
##  1 China          Asia       1957    50.5 637408000      576.
##  2 India          Asia       1957    40.2 409000000      590.
##  3 United States  Americas   1957    69.5 171984000    14847.
##  4 Japan          Asia       1957    65.5  91563009     4318.
##  5 Indonesia      Asia       1957    39.9  90124000      859.
##  6 Germany        Europe     1957    69.1  71019069    10188.
##  7 Brazil         Americas   1957    53.3  65551171     2487.
##  8 United Kingdom Europe     1957    70.4  51430000    11283.
##  9 Bangladesh     Asia       1957    39.3  51365468      662.
## 10 Italy          Europe     1957    67.8  49182000     6249.
## # ... with 132 more rows

這樣就可以排列出1957年人口數量高到低的國家囉

The mutate verb

mutate()可以用來增加欄位或改變欄位

gapminder %>%
mutate(lifeExp=12*lifeExp)

## # A tibble: 1,704 x 6
##    country     continent  year lifeExp      pop gdpPercap
##    <fct>       <fct>     <int>   <dbl>    <int>     <dbl>
##  1 Afghanistan Asia       1952    346.  8425333      779.
##  2 Afghanistan Asia       1957    364.  9240934      821.
##  3 Afghanistan Asia       1962    384. 10267083      853.
##  4 Afghanistan Asia       1967    408. 11537966      836.
##  5 Afghanistan Asia       1972    433. 13079460      740.
##  6 Afghanistan Asia       1977    461. 14880372      786.
##  7 Afghanistan Asia       1982    478. 12881816      978.
##  8 Afghanistan Asia       1987    490. 13867957      852.
##  9 Afghanistan Asia       1992    500. 16317921      649.
## 10 Afghanistan Asia       1997    501. 22227415      635.
## # ... with 1,694 more rows

gapminder %>%
mutate(lifeExpMonths=lifeExp*12)

## # A tibble: 1,704 x 7
##    country     continent  year lifeExp      pop gdpPercap lifeExpMonths
##    <fct>       <fct>     <int>   <dbl>    <int>     <dbl>         <dbl>
##  1 Afghanistan Asia       1952    28.8  8425333      779.          346.
##  2 Afghanistan Asia       1957    30.3  9240934      821.          364.
##  3 Afghanistan Asia       1962    32.0 10267083      853.          384.
##  4 Afghanistan Asia       1967    34.0 11537966      836.          408.
##  5 Afghanistan Asia       1972    36.1 13079460      740.          433.
##  6 Afghanistan Asia       1977    38.4 14880372      786.          461.
##  7 Afghanistan Asia       1982    39.9 12881816      978.          478.
##  8 Afghanistan Asia       1987    40.8 13867957      852.          490.
##  9 Afghanistan Asia       1992    41.7 16317921      649.          500.
## 10 Afghanistan Asia       1997    41.8 22227415      635.          501.
## # ... with 1,694 more rows

當然mutate也可以跟其他混在一起用

gapminder %>%
filter(year==2007) %>%
mutate(lifeExpMonths=12*lifeExp) %>%
arrange(desc(lifeExpMonths))

## # A tibble: 142 x 7
##    country          continent  year lifeExp    pop gdpPercap lifeExpMonths
##    <fct>            <fct>     <int>   <dbl>  <int>     <dbl>         <dbl>
##  1 Japan            Asia       2007    82.6 1.27e8    31656.          991.
##  2 Hong Kong, China Asia       2007    82.2 6.98e6    39725.          986.
##  3 Iceland          Europe     2007    81.8 3.02e5    36181.          981.
##  4 Switzerland      Europe     2007    81.7 7.55e6    37506.          980.
##  5 Australia        Oceania    2007    81.2 2.04e7    34435.          975.
##  6 Spain            Europe     2007    80.9 4.04e7    28821.          971.
##  7 Sweden           Europe     2007    80.9 9.03e6    33860.          971.
##  8 Israel           Asia       2007    80.7 6.43e6    25523.          969.
##  9 France           Europe     2007    80.7 6.11e7    30470.          968.
## 10 Canada           Americas   2007    80.7 3.34e7    36319.          968.
## # ... with 132 more rows
…
這樣我可以分析1957年每洲的資訊

你也可以一次group_by()很多東西

gapminder %>%
group_by(continent,year) %>%
summarize(medianLifeExp=median(lifeExp),maxGdpPercap=max(gdpPercap))

## # A tibble: 60 x 4
## # Groups:   continent [?]
##    continent  year medianLifeExp maxGdpPercap
##    <fct>     <int>         <dbl>        <dbl>
##  1 Africa     1952          38.8        4725.
##  2 Africa     1957          40.6        5487.
##  3 Africa     1962          42.6        6757.
##  4 Africa     1967          44.7       18773.
##  5 Africa     1972          47.0       21011.
##  6 Africa     1977          49.3       21951.
##  7 Africa     1982          50.8       17364.
##  8 Africa     1987          51.6       11864.
##  9 Africa     1992          52.4       13522.
## 10 Africa     1997          52.8       14723.
## # ... with 50 more rows
…
